{
  "evaluator": "context-project",
  "config": {
    "document-actions": [
      {
        "key": "add-translated-document",
        "rejectAuthority": [
          "hp-collaborator"
        ]
      },
      {
        "key": "delete-document",
        "rejectAuthority": [
          "hp-collaborator"
        ]
      },
      {
        "key": "lock-document",
        "rejectAuthority": [
          "hp-collaborator"
        ]
      },
      {
        "key": "remove-locale",
        "rejectAuthority": [
          "hp-collaborator"
        ]
      },
      {
        "key": "upload-attachment",
        "rejectAuthority": [
          "hp-collaborator"
        ]
      },
      {
        "key": "remove-multilingual-feature-from-document",
        "rejectAuthority": [
          "hp-collaborator"
        ]
      },
      {
        "key": "disable-inherit-propagated-authorities",
        "rejectAuthority": [
          "hp-collaborator"
        ]
      },
      {
        "key": "enable-inherit-propagated-authorities",
        "rejectAuthority": [
          "hp-collaborator"
        ]
      }
    ]
  }
}